<svg width="32" height="32" viewBox="0 0 32 32" fill="none" xmlns="http://www.w3.org/2000/svg">
<rect width="32" height="32" fill="#F2F2F4"/>
<path d="M11.312 17.392C11.312 19.36 11.264 22.528 11.192 23.08C11.096 23.848 10.976 24.136 10.232 24.136H9.08C8.912 24.136 8.864 24.184 8.864 24.304V24.928C8.864 25.024 8.912 25.072 9.2 25.072C9.656 25.072 11.072 25 12.272 25C13.28 25 14.216 25.072 15.872 25.072C18.08 25.072 19.448 24.832 20.456 24.208C21.56 23.512 22.304 21.832 22.304 20.608C22.304 18.064 20.744 16.624 18.416 15.856L18.344 15.808C20.216 14.824 21.272 14.224 21.272 11.848C21.272 10.432 20.792 9.328 19.424 8.584C18.584 8.104 17.048 7.936 15.176 7.936C14.336 7.936 12.896 8.008 12.128 8.008C10.4 8.008 9.32 7.936 8.936 7.936C8.792 7.936 8.744 7.984 8.744 8.104V8.704C8.744 8.824 8.792 8.872 8.936 8.872H9.68C10.784 8.872 11.168 8.92 11.24 10.312C11.264 10.744 11.312 13.672 11.312 14.56V17.392ZM13.424 16.312H14.192C15.296 16.312 16.424 16.336 17.408 16.72C18.824 17.272 19.808 18.544 19.808 20.488C19.808 23.344 17.96 24.304 15.944 24.304C13.952 24.304 13.424 23.32 13.424 21.112V17.8V16.312ZM13.424 13.72C13.424 11.728 13.448 9.64 13.472 9.16C13.472 8.944 13.616 8.776 13.808 8.728C14 8.68 14.264 8.704 14.6 8.704C15.824 8.704 17.024 8.92 17.888 9.52C18.776 10.168 19.064 11.128 19.064 12.04C19.064 13.096 18.704 14.176 17.72 14.92C17.144 15.328 16.064 15.544 14.696 15.544C14.288 15.544 13.88 15.544 13.424 15.496V13.72Z" fill="#464646"/>
</svg>
