<svg width="1600" height="872" viewBox="0 0 1600 872" fill="none" xmlns="http://www.w3.org/2000/svg">
<line x1="407.5" y1="872" x2="407.5" stroke="#CCCCCC"/>
<line x1="783.5" y1="872" x2="783.5" stroke="#CCCCCC"/>
<line x1="1159.5" y1="872" x2="1159.5" stroke="#CCCCCC"/>
</svg>
